[{
	"BusNumber": "A1",
	"BusRoute": [
		   {"_id": "A1_1",
				"BusStop": "Prince George's Park",
		    "ArrivalTimes": ["0730", "0812", "0854", "0936", "1018", "1100", "1142", "1224", "1306", "1348", "1430", "1512", "1554", "1636", "1718", "1800", "1842", "1924", "2006", "2048", "2130", "2212", "2254"]
		   },
		   {"_id": "A1_2",
				"BusStop": "Kent Ridge MRT Station",
	  	  "ArrivalTimes": ["0733", "0815", "0857", "0939", "1021", "1103", "1145", "1227", "1309", "1351", "1433", "1515", "1557", "1639", "1721", "1803", "1845", "1927", "2009", "2051", "2133", "2215", "2257"]
		   },
		   {"_id": "A1_3",
				"BusStop": "LT 29",
		    "ArrivalTimes": ["0736", "0818", "0900", "0942", "1024", "1106", "1148", "1230", "1312", "1354", "1436", "1518", "1600", "1642", "1724", "1806", "1848", "1930", "2012", "2054", "2136", "2218", "2300"]
		   },
		   {"_id": "A1_4",
				"BusStop": "University Hall",
		    "ArrivalTimes": ["0739", "0821", "0903", "0945", "1027", "1109", "1151", "1233", "1315", "1357", "1439", "1521", "1603", "1645", "1727", "1809", "1851", "1933", "2015", "2057", "2139", "2221", "2303"]
		   },
		   {"_id": "A1_5",
				"BusStop": "Opp University Health Centre",
		    "ArrivalTimes": ["0742", "0824", "0906", "0948", "1030", "1112", "1154", "1236", "1318", "1400", "1442", "1524", "1606", "1648", "1730", "1812", "1854", "1936", "2018", "2100", "2142", "2224", "2306"]
		   },
		   {"_id": "A1_6",
				"BusStop": "Yusof Ishak House",
		    "ArrivalTimes": ["0745", "0827", "0909", "0951", "1033", "1115", "1157", "1239", "1321", "1403", "1445", "1527", "1609", "1651", "1733", "1815", "1857", "1939", "2021", "2103", "2145", "2227", "2309"]
		   },
		   {"_id": "A1_7",
				"BusStop": "Central Library",
		    "ArrivalTimes": ["0748", "0830", "0912", "0954", "1036", "1118", "1200", "1242", "1324", "1406", "1448", "1530", "1612", "1654", "1736", "1818", "1900", "1942", "2024", "2106", "2148", "2230", "2312"]
		   },
		   {"_id": "A1_8",
				"BusStop": "LT 13",
		    "ArrivalTimes": ["0751", "0833", "0915", "0957", "1039", "1121", "1203", "1245", "1327", "1409", "1451", "1533", "1615", "1657", "1739", "1821", "1903", "1945", "2027", "2109", "2151", "2233", "2315"]
		   },
		   {"_id": "A1_9",
				"BusStop": "AS7",
		    "ArrivalTimes": ["0754", "0836", "0918", "1000", "1042", "1124", "1206", "1248", "1330", "1412", "1454", "1536", "1618", "1700", "1742", "1824", "1906", "1948", "2030", "2112", "2154", "2236", "2318"]
		   },
		   {"_id": "A1_10",
				"BusStop": "COM2 (CP13)",
		    "ArrivalTimes": ["0757", "0839", "0921", "1003", "1045", "1127", "1209", "1251", "1333", "1415", "1457", "1539", "1621", "1703", "1745", "1827", "1909", "1951", "2033", "2115", "2157", "2239", "2321"]
		   },
		   {"_id": "A1_11",
				"BusStop": "BIZ 2",
		    "ArrivalTimes": ["0800", "0842", "0924", "1006", "1048", "1130", "1212", "1254", "1336", "1418", "1500", "1542", "1624", "1706", "1748", "1830", "1912", "1954", "2036", "2118", "2200", "2242", "2324"]
		   },
		   {"_id": "A1_12",
				"BusStop": "Opp PGP Hse No 12",
		    "ArrivalTimes": ["0803", "0845", "0927", "1009", "1051", "1133", "1215", "1257", "1339", "1421", "1503", "1545", "1627", "1709", "1751", "1833", "1915", "1957", "2039", "2121", "2203", "2245", "2327"]
		   },
		   {"_id": "A1_13",
				"BusStop": "PGP Hse No 7",
		    "ArrivalTimes": ["0806", "0848", "0930", "1012", "1054", "1136", "1218", "1300", "1342", "1424", "1506", "1548", "1630", "1712", "1754", "1836", "1918", "2000", "2042", "2124", "2206", "2248", "2330"]
		   },
		   {"_id": "A1_14",
				"BusStop": "Prince George's Park",
		    "ArrivalTimes": ["0809", "0851", "0933", "1015", "1057", "1139", "1221", "1303", "1345", "1427", "1509", "1551", "1633", "1715", "1757", "1839", "1921", "2003", "2045", "2127", "2209", "2251", "2333"]
		   }
		  ],
	"Capacity": 60,
	"NumUsers": 12,
	"UserDetail":[
		     {
			"date": ISODate("2017-10-12T07:30:00Z"),
			"day": "Thursday",
			"start": "Kent Ridge MRT Station",
			"end": "COM2 (CP13)"
		     },
		     {
			"date": ISODate("2017-10-12T08:12:00Z"),
			"day": "Thursday",
			"start": "Kent Ridge MRT Station",
			"end": "COM2 (CP13)"
		     },
		     {
			"date": ISODate("2017-10-12T08:12:00Z"),
			"day": "Thursday",
			"start": "Kent Ridge MRT Station",
			"end": "COM2 (CP13)"
		     },
		     {
			"date": ISODate("2017-10-12T08:12:00Z"),
			"day": "Thursday",
			"start": "Kent Ridge MRT Station",
			"end": "COM2 (CP13)"
		     },
		     {
			"date": ISODate("2017-10-12T08:54:00Z"),
			"day": "Thursday",
			"start": "Kent Ridge MRT Station",
			"end": "COM2 (CP13)"
		     },
		     {
			"date": ISODate("2017-10-12T08:30:00Z"),
			"day": "Thursday",
			"start": "Yusof Ishak House",
			"end": "BIZ 2"
		     },
		     {
			"date": ISODate("2017-10-12T08:30:00Z"),
			"day": "Thursday",
			"start": "Yusof Ishak House",
			"end": "BIZ 2"
		     },
		     {
			"date": ISODate("2017-10-12T09:12:00Z"),
			"day": "Thursday",
			"start": "Yusof Ishak House",
			"end": "BIZ 2"
		     },
		     {
			"date": ISODate("2017-10-12T09:15:00Z"),
			"day": "Thursday",
			"start": "LT 13",
			"end": "BIZ 2"
		     },
		     {
			"date": ISODate("2017-10-12T09:15:00Z"),
			"day": "Thursday",
			"start": "Central Library",
			"end": "Opp PGP Hse No 12"
		     },
		     {
			"date": ISODate("2017-10-12T09:57:00Z"),
			"day": "Thursday",
			"start": "Central Library",
			"end": "Opp PGP Hse No 12"
		     },
		     {
			"date": ISODate("2017-10-12T07:54:00Z"),
			"day": "Thursday",
			"start": "LT 13",
			"end": "BIZ 2"
		     },
		     {
			"date": ISODate("2017-10-12T07:54:00Z"),
			"day": "Thursday",
			"start": "LT 13",
			"end": "BIZ 2"
		     },
		     {
			"date": ISODate("2017-10-12T07:54:00Z"),
			"day": "Thursday",
			"start": "LT 13",
			"end": "BIZ 2"
		     },
		     {
			"date": ISODate("2017-10-12T08:36:00Z"),
			"day": "Thursday",
			"start": "LT 13",
			"end": "BIZ 2"
		     },
		     {
			"date": ISODate("2017-10-12T08:36:00Z"),
			"day": "Thursday",
			"start": "LT 13",
			"end": "BIZ 2"
		     },
		     {
			"date": ISODate("2017-10-12T09:18:00Z"),
			"day": "Thursday",
			"start": "LT 13",
			"end": "BIZ 2"
		     },
		     {
			"date": ISODate("2017-10-12T09:18:00Z"),
			"day": "Thursday",
			"start": "LT 13",
			"end": "BIZ 2"
		     },
		     {
			"date": ISODate("2017-10-12T09:18:00Z"),
			"day": "Thursday",
			"start": "LT 13",
			"end": "BIZ 2"
		     },
		     {
			"date": ISODate("2017-10-12T09:18:00Z"),
			"day": "Thursday",
			"start": "LT 13",
			"end": "BIZ 2"
		     },
		     {
			"date": ISODate("2017-10-12T09:18:00Z"),
			"day": "Thursday",
			"start": "LT 13",
			"end": "BIZ 2"
		     },
		     {
			"date": ISODate("2017-10-12T07:45:00Z"),
			"day": "Thursday",
			"start": "Opp University Health Centre",
			"end": "COM2 (CP13)"
		     },
		     {
			"date": ISODate("2017-10-12T07:45:00Z"),
			"day": "Thursday",
			"start": "Opp University Health Centre",
			"end": "COM2 (CP13)"
		     },
		     {
			"date": ISODate("2017-10-12T07:45:00Z"),
			"day": "Thursday",
			"start": "Opp University Health Centre",
			"end": "COM2 (CP13)"
		     },
		     {
			"date": ISODate("2017-10-12T07:45:00Z"),
			"day": "Thursday",
			"start": "Opp University Health Centre",
			"end": "COM2 (CP13)"
		     },
		     {
			"date": ISODate("2017-10-12T07:45:00Z"),
			"day": "Thursday",
			"start": "Opp University Health Centre",
			"end": "COM2 (CP13)"
		     },
		     {
			"date": ISODate("2017-10-12T07:45:00Z"),
			"day": "Thursday",
			"start": "Opp University Health Centre",
			"end": "COM2 (CP13)"
		     },
		     {
			"date": ISODate("2017-10-12T08:27:00Z"),
			"day": "Thursday",
			"start": "Opp University Health Centre",
			"end": "COM2 (CP13)"
		     },
		     {
			"date": ISODate("2017-10-12T08:27:00Z"),
			"day": "Thursday",
			"start": "Opp University Health Centre",
			"end": "COM2 (CP13)"
		     },
		     {
			"date": ISODate("2017-10-12T08:27:00Z"),
			"day": "Thursday",
			"start": "Opp University Health Centre",
			"end": "COM2 (CP13)"
		     },
		     {
			"date": ISODate("2017-10-12T09:09:00Z"),
			"day": "Thursday",
			"start": "Opp University Health Centre",
			"end": "COM2 (CP13)"
		     },
		     {
			"date": ISODate("2017-10-12T09:09:00Z"),
			"day": "Thursday",
			"start": "Opp University Health Centre",
			"end": "COM2 (CP13)"
		     },
		     {
			"date": ISODate("2017-10-12T09:36:00Z"),
			"day": "Thursday",
			"start": "Prince George's Park",
			"end": "COM2 (CP13)"
		     },
		     {
			"date": ISODate("2017-10-12T09:36:00Z"),
			"day": "Thursday",
			"start": "Prince George's Park",
			"end": "Opp University Health Centre"
		     },
		     {
			"date": ISODate("2017-10-12T09:36:00Z"),
			"day": "Thursday",
			"start": "Prince George's Park",
			"end": "Opp University Health Centre"
		     },
		     {
			"date": ISODate("2017-10-12T09:36:00Z"),
			"day": "Thursday",
			"start": "Prince George's Park",
			"end": "Opp University Health Centre"
		     },
		     {
			"date": ISODate("2017-10-12T09:36:00Z"),
			"day": "Thursday",
			"start": "Prince George's Park",
			"end": "Opp University Health Centre"
		     },
		     {
			"date": ISODate("2017-10-12T09:36:00Z"),
			"day": "Thursday",
			"start": "Prince George's Park",
			"end": "Opp University Health Centre"
		     },
		     {
			"date": ISODate("2017-10-12T10:18:00Z"),
			"day": "Thursday",
			"start": "Prince George's Park",
			"end": "Opp University Health Centre"
		     },
		     {
			"date": ISODate("2017-10-12T10:18:00Z"),
			"day": "Thursday",
			"start": "Prince George's Park",
			"end": "Opp University Health Centre"
		     },
		     {
			"date": ISODate("2017-10-12T10:18:00Z"),
			"day": "Thursday",
			"start": "Prince George's Park",
			"end": "COM2 (CP13)"
		     },
		     {
			"date": ISODate("2017-10-12T10:18:00Z"),
			"day": "Thursday",
			"start": "Prince George's Park",
			"end": "COM2 (CP13)"
		     },
		     {
			"date": ISODate("2017-10-12T11:00:00Z"),
			"day": "Thursday",
			"start": "Prince George's Park",
			"end": "COM2 (CP13)"
		     },
		     {
			"date": ISODate("2017-10-12T11:00:00Z"),
			"day": "Thursday",
			"start": "Prince George's Park",
			"end": "COM2 (CP13)"
		     },
		     {
			"date": ISODate("2017-10-12T11:00:00Z"),
			"day": "Thursday",
			"start": "Prince George's Park",
			"end": "Opp University Health Centre"
		     },
		     {
			"date": ISODate("2017-10-12T09:39:00Z"),
			"day": "Thursday",
			"start": "Prince George's Park",
			"end": "Opp University Health Centre"
		     },
		     {
			"date": ISODate("2017-10-12T09:39:00Z"),
			"day": "Thursday",
			"start": "Prince George's Park",
			"end": "Opp University Health Centre"
		     },
		     {
			"date": ISODate("2017-10-12T09:39:00Z"),
			"day": "Thursday",
			"start": "Prince George's Park",
			"end": "Opp University Health Centre"
		     },
		     {
			"date": ISODate("2017-10-12T09:39:00Z"),
			"day": "Thursday",
			"start": "Prince George's Park",
			"end": "Opp University Health Centre"
		     },
		     {
			"date": ISODate("2017-10-12T09:39:00Z"),
			"day": "Thursday",
			"start": "Prince George's Park",
			"end": "Opp University Health Centre"
		     },
		     {
			"date": ISODate("2017-10-12T09:39:00Z"),
			"day": "Thursday",
			"start": "Prince George's Park",
			"end": "Opp University Health Centre"
		     },
		     {
			"date": ISODate("2017-10-12T09:39:00Z"),
			"day": "Thursday",
			"start": "Prince George's Park",
			"end": "Opp University Health Centre"
		     },
		     {
			"date": ISODate("2017-10-12T09:39:00Z"),
			"day": "Thursday",
			"start": "Prince George's Park",
			"end": "Opp University Health Centre"
		     },
		     {
			"date": ISODate("2017-10-12T09:39:00Z"),
			"day": "Thursday",
			"start": "Prince George's Park",
			"end": "Opp University Health Centre"
		     },
		     {
			"date": ISODate("2017-10-12T09:39:00Z"),
			"day": "Thursday",
			"start": "Prince George's Park",
			"end": "Opp University Health Centre"
		     },
		     {
			"date": ISODate("2017-10-12T09:39:00Z"),
			"day": "Thursday",
			"start": "Prince George's Park",
			"end": "Opp University Health Centre"
		     },
		     {
			"date": ISODate("2017-10-12T10:21:00Z"),
			"day": "Thursday",
			"start": "Prince George's Park",
			"end": "COM2 (CP13)"
		     },
		     {
			"date": ISODate("2017-10-12T10:21:00Z"),
			"day": "Thursday",
			"start": "Prince George's Park",
			"end": "COM2 (CP13)"
		     },
		     {
			"date": ISODate("2017-10-12T10:21:00Z"),
			"day": "Thursday",
			"start": "Prince George's Park",
			"end": "COM2 (CP13)"
		     },
		     {
			"date": ISODate("2017-10-12T11:03:00Z"),
			"day": "Thursday",
			"start": "Prince George's Park",
			"end": "COM2 (CP13)"
		     },
		     {
			"date": ISODate("2017-10-12T11:03:00Z"),
			"day": "Thursday",
			"start": "Prince George's Park",
			"end": "COM2 (CP13)"
		     },
		     {
			"date": ISODate("2017-10-12T11:03:00Z"),
			"day": "Thursday",
			"start": "Prince George's Park",
			"end": "COM2 (CP13)"
		     },
		     {
			"date": ISODate("2017-10-12T11:03:00Z"),
			"day": "Thursday",
			"start": "Prince George's Park",
			"end": "COM2 (CP13)"
		     },
		     {
			"date": ISODate("2017-10-12T11:45:00Z"),
			"day": "Thursday",
			"start": "Prince George's Park",
			"end": "COM2 (CP13)"
		     },
		     {
			"date": ISODate("2017-10-12T11:45:00Z"),
			"day": "Thursday",
			"start": "Prince George's Park",
			"end": "COM2 (CP13)"
		     },
		     {
			"date": ISODate("2017-10-12T11:45:00Z"),
			"day": "Thursday",
			"start": "Prince George's Park",
			"end": "COM2 (CP13)"
		     },
		     {
			"date": ISODate("2017-10-12T11:45:00Z"),
			"day": "Thursday",
			"start": "Prince George's Park",
			"end": "COM2 (CP13)"
		     },
		     {
			"date": ISODate("2017-10-12T12:09:00Z"),
			"day": "Thursday",
			"start": "COM2 (CP13)",
			"end": "Prince George's Park"
		     },
		     {
			"date": ISODate("2017-10-12T12:09:00Z"),
			"day": "Thursday",
			"start": "COM2 (CP13)",
			"end": "Prince George's Park"
		     },
		     {
			"date": ISODate("2017-10-12T12:09:00Z"),
			"day": "Thursday",
			"start": "COM2 (CP13)",
			"end": "Prince George's Park"
		     },
		     {
			"date": ISODate("2017-10-12T12:09:00Z"),
			"day": "Thursday",
			"start": "COM2 (CP13)",
			"end": "Prince George's Park"
		     },
		     {
			"date": ISODate("2017-10-12T12:09:00Z"),
			"day": "Thursday",
			"start": "COM2 (CP13)",
			"end": "Prince George's Park"
		     },
		     {
			"date": ISODate("2017-10-12T12:51:00Z"),
			"day": "Thursday",
			"start": "COM2 (CP13)",
			"end": "Prince George's Park"
		     },
		     {
			"date": ISODate("2017-10-12T12:51:00Z"),
			"day": "Thursday",
			"start": "COM2 (CP13)",
			"end": "Prince George's Park"
		     },
		     {
			"date": ISODate("2017-10-12T12:51:00Z"),
			"day": "Thursday",
			"start": "COM2 (CP13)",
			"end": "Prince George's Park"
		     },
		     {
			"date": ISODate("2017-10-12T13:33:00Z"),
			"day": "Thursday",
			"start": "COM2 (CP13)",
			"end": "Prince George's Park"
		     },
		     {
			"date": ISODate("2017-10-12T13:33:00Z"),
			"day": "Thursday",
			"start": "COM2 (CP13)",
			"end": "Prince George's Park"
		     },
		     {
			"date": ISODate("2017-10-12T13:33:00Z"),
			"day": "Thursday",
			"start": "COM2 (CP13)",
			"end": "Prince George's Park"
		     },
		     {
			"date": ISODate("2017-10-12T13:33:00Z"),
			"day": "Thursday",
			"start": "COM2 (CP13)",
			"end": "Prince George's Park"
		     },
		     {
			"date": ISODate("2017-10-12T13:33:00Z"),
			"day": "Thursday",
			"start": "COM2 (CP13)",
			"end": "Prince George's Park"
		     },
		     {
			"date": ISODate("2017-10-12T13:33:00Z"),
			"day": "Thursday",
			"start": "COM2 (CP13)",
			"end": "Prince George's Park"
		     },
		     {
			"date": ISODate("2017-10-12T13:33:00Z"),
			"day": "Thursday",
			"start": "COM2 (CP13)",
			"end": "Prince George's Park"
		     },
		     {
			"date": ISODate("2017-10-12T13:33:00Z"),
			"day": "Thursday",
			"start": "COM2 (CP13)",
			"end": "Prince George's Park"
		     },
		     {
			"date": ISODate("2017-10-12T13:33:00Z"),
			"day": "Thursday",
			"start": "COM2 (CP13)",
			"end": "Prince George's Park"
		     },
		     {
			"date": ISODate("2017-10-12T13:33:00Z"),
			"day": "Thursday",
			"start": "COM2 (CP13)",
			"end": "Prince George's Park"
		     },
		     {
			"date": ISODate("2017-10-12T13:33:00Z"),
			"day": "Thursday",
			"start": "COM2 (CP13)",
			"end": "Prince George's Park"
		     },
		     {
			"date": ISODate("2017-10-12T13:33:00Z"),
			"day": "Thursday",
			"start": "COM2 (CP13)",
			"end": "Prince George's Park"
		     },
		     {
			"date": ISODate("2017-10-12T13:48:00Z"),
			"day": "Thursday",
			"start": "Prince George's Park",
			"end": "Central Library"
		     },
		     {
			"date": ISODate("2017-10-12T13:48:00Z"),
			"day": "Thursday",
			"start": "Prince George's Park",
			"end": "LT 13"
		     },
		     {
			"date": ISODate("2017-10-12T13:48:00Z"),
			"day": "Thursday",
			"start": "Prince George's Park",
			"end": "LT 13"
		     },
		     {
			"date": ISODate("2017-10-12T13:48:00Z"),
			"day": "Thursday",
			"start": "Prince George's Park",
			"end": "LT 13"
		     },
		     {
			"date": ISODate("2017-10-12T13:48:00Z"),
			"day": "Thursday",
			"start": "Prince George's Park",
			"end": "LT 13"
		     },

		     {
			"date": ISODate("2017-10-12T08:54:00Z"),
			"day": "Thursday",
			"start": "Kent Ridge MRT Station",
			"end": "COM2 (CP13)"
		     },
		     {
			"date": ISODate("2017-10-12T08:54:00Z"),
			"day": "Thursday",
			"start": "Kent Ridge MRT Station",
			"end": "COM2 (CP13)"
		     },
		     {
			"date": ISODate("2017-10-12T08:54:00Z"),
			"day": "Thursday",
			"start": "Kent Ridge MRT Station",
			"end": "COM2 (CP13)"
		     },
		     {
			"date": ISODate("2017-10-12T08:54:00Z"),
			"day": "Thursday",
			"start": "Kent Ridge MRT Station",
			"end": "COM2 (CP13)"
		     },
		     {
			"date": ISODate("2017-10-12T08:54:00Z"),
			"day": "Thursday",
			"start": "Kent Ridge MRT Station",
			"end": "COM2 (CP13)"
		     },
		     {
			"date": ISODate("2017-10-12T08:54:00Z"),
			"day": "Thursday",
			"start": "Kent Ridge MRT Station",
			"end": "COM2 (CP13)"
		     },
		     {
			"date": ISODate("2017-10-12T08:54:00Z"),
			"day": "Thursday",
			"start": "Kent Ridge MRT Station",
			"end": "COM2 (CP13)"
		     },
		     {
			"date": ISODate("2017-10-12T07:30:00Z"),
			"day": "Thursday",
			"start": "Kent Ridge MRT Station",
			"end": "Central Library"
		     },
		     {
			"date": ISODate("2017-10-12T08:12:00Z"),
			"day": "Thursday",
			"start": "Kent Ridge MRT Station",
			"end": "Central Library"
		     },
		     {
			"date": ISODate("2017-10-12T08:12:00Z"),
			"day": "Thursday",
			"start": "Kent Ridge MRT Station",
			"end": "Central Library"
		     },
		     {
			"date": ISODate("2017-10-12T08:12:00Z"),
			"day": "Thursday",
			"start": "Kent Ridge MRT Station",
			"end": "Central Library"
		     },
		     {
			"date": ISODate("2017-10-12T08:54:00Z"),
			"day": "Thursday",
			"start": "Kent Ridge MRT Station",
			"end": "Central Library"
		     },
		     {
			"date": ISODate("2017-10-12T08:54:00Z"),
			"day": "Thursday",
			"start": "Kent Ridge MRT Station",
			"end": "Central Library"
		     },
		     {
			"date": ISODate("2017-10-12T08:54:00Z"),
			"day": "Thursday",
			"start": "Kent Ridge MRT Station",
			"end": "Central Library"
		     },
		     {
			"date": ISODate("2017-10-12T08:54:00Z"),
			"day": "Thursday",
			"start": "Kent Ridge MRT Station",
			"end": "Central Library"
		     },
		     {
			"date": ISODate("2017-10-12T08:54:00Z"),
			"day": "Thursday",
			"start": "Kent Ridge MRT Station",
			"end": "Central Library"
		     },
		     {
			"date": ISODate("2017-10-12T08:54:00Z"),
			"day": "Thursday",
			"start": "Kent Ridge MRT Station",
			"end": "Central Library"
		     },
		     {
			"date": ISODate("2017-10-12T08:44:00Z"),
			"day": "Thursday",
			"start": "Kent Ridge MRT Station",
			"end": "Central Library"
		     },
		     {
			"date": ISODate("2017-10-12T08:54:00Z"),
			"day": "Thursday",
			"start": "Kent Ridge MRT Station",
			"end": "Central Library"
		     },
		     {
			"date": ISODate("2017-10-12T07:30:00Z"),
			"day": "Thursday",
			"start": "Kent Ridge MRT Station",
			"end": "LT29"
		     },
		     {
			"date": ISODate("2017-10-12T08:12:00Z"),
			"day": "Thursday",
			"start": "Kent Ridge MRT Station",
			"end": "LT29"
		     },
		     {
			"date": ISODate("2017-10-12T08:12:00Z"),
			"day": "Thursday",
			"start": "Kent Ridge MRT Station",
			"end": "University Hall"
		     },
		     {
			"date": ISODate("2017-10-12T08:12:00Z"),
			"day": "Thursday",
			"start": "Kent Ridge MRT Station",
			"end": "University Hall"
		     },
		     {
			"date": ISODate("2017-10-12T08:54:00Z"),
			"day": "Thursday",
			"start": "Kent Ridge MRT Station",
			"end": "University Hall"
		     },
		     {
			"date": ISODate("2017-10-12T08:54:00Z"),
			"day": "Thursday",
			"start": "Kent Ridge MRT Station",
			"end": "Opp University Health Centre"
		     },
		     {
			"date": ISODate("2017-10-12T08:54:00Z"),
			"day": "Thursday",
			"start": "Kent Ridge MRT Station",
			"end": "Opp University Health Centre"
		     },
		     {
			"date": ISODate("2017-10-12T08:54:00Z"),
			"day": "Thursday",
			"start": "Kent Ridge MRT Station",
			"end": "Opp University Health Centre"
		     },
		     {
			"date": ISODate("2017-10-12T08:54:00Z"),
			"day": "Thursday",
			"start": "Kent Ridge MRT Station",
			"end": "Opp University Health Centre"
		     },
		     {
			"date": ISODate("2017-10-12T08:54:00Z"),
			"day": "Thursday",
			"start": "Kent Ridge MRT Station",
			"end": "Opp University Health Centre"
		     },
		     {
			"date": ISODate("2017-10-12T08:44:00Z"),
			"day": "Thursday",
			"start": "Kent Ridge MRT Station",
			"end": "Opp University Health Centre"
		     },
		     {
			"date": ISODate("2017-10-12T08:54:00Z"),
			"day": "Thursday",
			"start": "Kent Ridge MRT Station",
			"end": "Yusof Ishak House"
		     },
		     {
			"date": ISODate("2017-10-12T07:30:00Z"),
			"day": "Thursday",
			"start": "Kent Ridge MRT Station",
			"end": "Yusof Ishak House"
		     },
		     {
			"date": ISODate("2017-10-12T08:12:00Z"),
			"day": "Thursday",
			"start": "Kent Ridge MRT Station",
			"end": "Yusof Ishak House"
		     },
		     {
			"date": ISODate("2017-10-12T08:12:00Z"),
			"day": "Thursday",
			"start": "Kent Ridge MRT Station",
			"end": "University Hall"
		     },
		     {
			"date": ISODate("2017-10-12T08:12:00Z"),
			"day": "Thursday",
			"start": "Kent Ridge MRT Station",
			"end": "University Hall"
		     },
		     {
			"date": ISODate("2017-10-12T08:54:00Z"),
			"day": "Thursday",
			"start": "Kent Ridge MRT Station",
			"end": "University Hall"
		     },
		     {
			"date": ISODate("2017-10-12T08:54:00Z"),
			"day": "Thursday",
			"start": "Kent Ridge MRT Station",
			"end": "Opp University Health Centre"
		     },
		     {
			"date": ISODate("2017-10-12T08:54:00Z"),
			"day": "Thursday",
			"start": "Kent Ridge MRT Station",
			"end": "Opp University Health Centre"
		     },
		     {
			"date": ISODate("2017-10-12T08:54:00Z"),
			"day": "Thursday",
			"start": "Kent Ridge MRT Station",
			"end": "Opp University Health Centre"
		     },
		     {
			"date": ISODate("2017-10-12T08:54:00Z"),
			"day": "Thursday",
			"start": "Kent Ridge MRT Station",
			"end": "Opp University Health Centre"
		     },
		     {
			"date": ISODate("2017-10-12T08:54:00Z"),
			"day": "Thursday",
			"start": "Kent Ridge MRT Station",
			"end": "Opp University Health Centre"
		     },
		     {
			"date": ISODate("2017-10-12T08:44:00Z"),
			"day": "Thursday",
			"start": "Kent Ridge MRT Station",
			"end": "Opp University Health Centre"
		     },
		     {
			"date": ISODate("2017-10-12T08:54:00Z"),
			"day": "Thursday",
			"start": "Kent Ridge MRT Station",
			"end": "Yusof Ishak House"
		     },
		     {
			"date": ISODate("2017-10-12T09:20:00Z"),
			"day": "Thursday",
			"start": "Kent Ridge MRT Station",
			"end": "Yusof Ishak House"
		     },
		     {
			"date": ISODate("2017-10-12T09:23:00Z"),
			"day": "Thursday",
			"start": "Kent Ridge MRT Station",
			"end": "Yusof Ishak House"
		     },
		     {
			"date": ISODate("2017-10-12T09:29:00Z"),
			"day": "Thursday",
			"start": "Kent Ridge MRT Station",
			"end": "Yusof Ishak House"
		     },
		     {
			"date": ISODate("2017-10-12T09:39:00Z"),
			"day": "Thursday",
			"start": "Kent Ridge MRT Station",
			"end": "LT 13"
		     },
		     {
			"date": ISODate("2017-10-12T09:45:00Z"),
			"day": "Thursday",
			"start": "Kent Ridge MRT Station",
			"end": "LT 13"
		     },
		     {
			"date": ISODate("2017-10-12T09:48:00Z"),
			"day": "Thursday",
			"start": "Kent Ridge MRT Station",
			"end": "LT 13"
		     },
		     {
			"date": ISODate("2017-10-12T10:23:00Z"),
			"day": "Thursday",
			"start": "Kent Ridge MRT Station",
			"end": "LT 13"
		     },
		     {
			"date": ISODate("2017-10-12T10:26:00Z"),
			"day": "Thursday",
			"start": "Kent Ridge MRT Station",
			"end": "LT 13"
		     },
		     {
			"date": ISODate("2017-10-12T10:40:00Z"),
			"day": "Thursday",
			"start": "Kent Ridge MRT Station",
			"end": "AS7"
		     },
		     {
			"date": ISODate("2017-10-12T10:42:00Z"),
			"day": "Thursday",
			"start": "Kent Ridge MRT Station",
			"end": "AS7"
		     },
		     {
			"date": ISODate("2017-10-12T10:46:00Z"),
			"day": "Thursday",
			"start": "Kent Ridge MRT Station",
			"end": "AS7"
		     },
		     {
			"date": ISODate("2017-10-12T10:55:00Z"),
			"day": "Thursday",
			"start": "Kent Ridge MRT Station",
			"end": "AS7"
		     },
		     {
			"date": ISODate("2017-10-12T14:06:00Z"),
			"day": "Thursday",
			"start": "Central Library",
			"end": "BIZ 2"
		     },
		     {
			"date": ISODate("2017-10-12T14:06:00Z"),
			"day": "Thursday",
			"start": "Central Library",
			"end": "BIZ 2"
		     },
		     {
			"date": ISODate("2017-10-12T14:06:00Z"),
			"day": "Thursday",
			"start": "Central Library",
			"end": "BIZ 2"
		     },
		     {
			"date": ISODate("2017-10-12T14:51:00Z"),
			"day": "Thursday",
			"start": "Central Library",
			"end": "BIZ 2"
		     },
		     {
			"date": ISODate("2017-10-12T14:51:00Z"),
			"day": "Thursday",
			"start": "Central Library",
			"end": "Opp PGP Hse No 12"
		     },
		     {
			"date": ISODate("2017-10-12T14:51:00Z"),
			"day": "Thursday",
			"start": "Central Library",
			"end": "Opp PGP Hse No 12"
		     },
		     {
			"date": ISODate("2017-10-12T14:54:00Z"),
			"day": "Thursday",
			"start": "COM2 (CP13)",
			"end": "BIZ 2"
		     },
		     {
			"date": ISODate("2017-10-12T14:54:00Z"),
			"day": "Thursday",
			"start": "COM2 (CP13)",
			"end": "BIZ 2"
		     },
		     {
			"date": ISODate("2017-10-12T14:54:00Z"),
			"day": "Thursday",
			"start": "COM2 (CP13)",
			"end": "BIZ 2"
		     },
		     {
			"date": ISODate("2017-10-12T14:54:00Z"),
			"day": "Thursday",
			"start": "COM2 (CP13)",
			"end": "BIZ 2"
		     },
		     {
			"date": ISODate("2017-10-12T15:36:00Z"),
			"day": "Thursday",
			"start": "COM2 (CP13)",
			"end": "BIZ 2"
		     },
		     {
			"date": ISODate("2017-10-12T15:36:00Z"),
			"day": "Thursday",
			"start": "COM2 (CP13)",
			"end": "BIZ 2"
		     },
		     {
			"date": ISODate("2017-10-12T15:36:00Z"),
			"day": "Thursday",
			"start": "COM2 (CP13)",
			"end": "BIZ 2"
		     },
		     {
			"date": ISODate("2017-10-12T15:36:00Z"),
			"day": "Thursday",
			"start": "COM2 (CP13)",
			"end": "BIZ 2"
		     },
		     {
			"date": ISODate("2017-10-12T15:36:00Z"),
			"day": "Thursday",
			"start": "COM2 (CP13)",
			"end": "BIZ 2"
		     },
		     {
			"date": ISODate("2017-10-12T15:36:00Z"),
			"day": "Thursday",
			"start": "COM2 (CP13)",
			"end": "BIZ 2"
		     },
		     {
			"date": ISODate("2017-10-12T16:09:00Z"),
			"day": "Thursday",
			"start": "Central Library",
			"end": "COM2 (CP13)"
		     },
		     {
			"date": ISODate("2017-10-12T16:09:00Z"),
			"day": "Thursday",
			"start": "Central Library",
			"end": "COM2 (CP13)"
		     },
		     {
			"date": ISODate("2017-10-12T16:09:00Z"),
			"day": "Thursday",
			"start": "Central Library",
			"end": "COM2 (CP13)"
		     },
		     {
			"date": ISODate("2017-10-12T16:09:00Z"),
			"day": "Thursday",
			"start": "Central Library",
			"end": "COM2 (CP13)"
		     },
		     {
			"date": ISODate("2017-10-12T16:09:00Z"),
			"day": "Thursday",
			"start": "Central Library",
			"end": "COM2 (CP13)"
		     },
		     {
			"date": ISODate("2017-10-12T16:09:00Z"),
			"day": "Thursday",
			"start": "Central Library",
			"end": "COM2 (CP13)"
		     },
		     {
			"date": ISODate("2017-10-12T16:09:00Z"),
			"day": "Thursday",
			"start": "Central Library",
			"end": "COM2 (CP13)"
		     },
		     {
			"date": ISODate("2017-10-12T16:09:00Z"),
			"day": "Thursday",
			"start": "Central Library",
			"end": "COM2 (CP13)"
		     },
		     {
			"date": ISODate("2017-10-12T16:09:00Z"),
			"day": "Thursday",
			"start": "Central Library",
			"end": "COM2 (CP13)"
		     },
		     {
			"date": ISODate("2017-10-12T16:51:00Z"),
			"day": "Thursday",
			"start": "Central Library",
			"end": "COM2 (CP13)"
		     },
		     {
			"date": ISODate("2017-10-12T17:03:00Z"),
			"day": "Thursday",
			"start": "Central Library",
			"end": "COM2 (CP13)"
		     },
		     {
			"date": ISODate("2017-10-12T17:03:00Z"),
			"day": "Thursday",
			"start": "COM2 (CP13)",
			"end": "Prince George's Park"
		     },
		     {
			"date": ISODate("2017-10-12T17:03:00Z"),
			"day": "Thursday",
			"start": "COM2 (CP13)",
			"end": "Prince George's Park"
		     },
		     {
			"date": ISODate("2017-10-12T17:03:00Z"),
			"day": "Thursday",
			"start": "COM2 (CP13)",
			"end": "Prince George's Park"
		     },
		     {
			"date": ISODate("2017-10-12T17:03:00Z"),
			"day": "Thursday",
			"start": "COM2 (CP13)",
			"end": "Prince George's Park"
		     },
		     {
			"date": ISODate("2017-10-12T17:03:00Z"),
			"day": "Thursday",
			"start": "COM2 (CP13)",
			"end": "Prince George's Park"
				 },
		     {
			"date": ISODate("2017-10-12T17:03:00Z"),
			"day": "Thursday",
			"start": "COM2 (CP13)",
			"end": "Prince George's Park"
		     },
		     {
			"date": ISODate("2017-10-12T17:03:00Z"),
			"day": "Thursday",
			"start": "COM2 (CP13)",
			"end": "Prince George's Park"
		     },
		     {
			"date": ISODate("2017-10-12T17:03:00Z"),
			"day": "Thursday",
			"start": "COM2 (CP13)",
			"end": "Prince George's Park"
		     },
		     {
			"date": ISODate("2017-10-12T17:45:00Z"),
			"day": "Thursday",
			"start": "COM2 (CP13)",
			"end": "Prince George's Park"
		     },
		     {
			"date": ISODate("2017-10-12T17:45:00Z"),
			"day": "Thursday",
			"start": "COM2 (CP13)",
			"end": "Prince George's Park"
		     },
		     {
			"date": ISODate("2017-10-12T17:45:00Z"),
			"day": "Thursday",
			"start": "COM2 (CP13)",
			"end": "Prince George's Park"
		     },
		     {
			"date": ISODate("2017-10-12T18:27:00Z"),
			"day": "Thursday",
			"start": "COM2 (CP13)",
			"end": "Prince George's Park"
		     },
		     {
			"date": ISODate("2017-10-12T18:27:00Z"),
			"day": "Thursday",
			"start": "COM2 (CP13)",
			"end": "Prince George's Park"
		     },
		     {
			"date": ISODate("2017-10-12T18:27:00Z"),
			"day": "Thursday",
			"start": "COM2 (CP13)",
			"end": "Prince George's Park"
		     },
		     {
			"date": ISODate("2017-10-12T18:27:00Z"),
			"day": "Thursday",
			"start": "COM2 (CP13)",
				"end": "Prince George's Park"
		     },
		     {
			"date": ISODate("2017-10-12T18:27:00Z"),
			"day": "Thursday",
			"start": "COM2 (CP13)",
			"end": "Prince George's Park"
		     },
		     {
			"date": ISODate("2017-10-12T18:27:00Z"),
			"day": "Thursday",
			"start": "COM2 (CP13)",
			"end": "Prince George's Park"
		     },
		     {
			"date": ISODate("2017-10-12T18:27:00Z"),
			"day": "Thursday",
			"start": "COM2 (CP13)",
			"end": "Prince George's Park"
		     },
		     {
			"date": ISODate("2017-10-12T18:27:00Z"),
			"day": "Thursday",
			"start": "COM2 (CP13)",
			"end": "Prince George's Park"
		     },
		     {
			"date": ISODate("2017-10-12T18:27:00Z"),
			"day": "Thursday",
			"start": "COM2 (CP13)",
			"end": "Prince George's Park"
		     },
		     {
			"date": ISODate("2017-10-12T18:27:00Z"),
			"day": "Thursday",
			"start": "COM2 (CP13)",
			"end": "Prince George's Park"
		     },
		     {
			"date": ISODate("2017-10-12T18:27:00Z"),
			"day": "Thursday",
			"start": "COM2 (CP13)",
			"end": "Prince George's Park"
		     },
		     {
			"date": ISODate("2017-10-12T18:27:00Z"),
			"day": "Thursday",
			"start": "COM2 (CP13)",
			"end": "Prince George's Park"
		     },
		     {
			"date": ISODate("2017-10-12T19:09:00Z"),
			"day": "Thursday",
			"start": "COM2 (CP13)",
			"end": "Prince George's Park"
		     },
		     {
			"date": ISODate("2017-10-12T19:09:00Z"),
			"day": "Thursday",
			"start": "COM2 (CP13)",
			"end": "Prince George's Park"
		     },
		     {
			"date": ISODate("2017-10-12T19:09:00Z"),
			"day": "Thursday",
			"start": "COM2 (CP13)",
			"end": "Prince George's Park"
		     },
		     {
			"date": ISODate("2017-10-12T19:09:00Z"),
			"day": "Thursday",
			"start": "COM2 (CP13)",
			"end": "Prince George's Park"
		     },
		     {
			"date": ISODate("2017-10-12T19:09:00Z"),
			"day": "Thursday",
			"start": "COM2 (CP13)",
			"end": "Prince George's Park"
		     },
		     {
			"date": ISODate("2017-10-12T18:24:00Z"),
			"day": "Thursday",
			"start": "COM2 (CP13)",
			"end": "Prince George's Park"
		     },
		     {
			"date": ISODate("2017-10-12T18:24:00Z"),
			"day": "Thursday",
			"start": "COM2 (CP13)",
			"end": "Prince George's Park"
		     },
		     {
			"date": ISODate("2017-10-12T18:24:00Z"),
			"day": "Thursday",
			"start": "COM2 (CP13)",
			"end": "Prince George's Park"
		     },
		     {
			"date": ISODate("2017-10-12T18:24:00Z"),
			"day": "Thursday",
			"start": "COM2 (CP13)",
			"end": "Prince George's Park"
		     },
		     {
			"date": ISODate("2017-10-12T18:24:00Z"),
			"day": "Thursday",
			"start": "COM2 (CP13)",
			"end": "Prince George's Park"
		     },
		     {
			"date": ISODate("2017-10-12T18:24:00Z"),
			"day": "Thursday",
			"start": "COM2 (CP13)",
			"end": "Prince George's Park"
		     },
		     {
			"date": ISODate("2017-10-12T18:24:00Z"),
			"day": "Thursday",
			"start": "COM2 (CP13)",
			"end": "Prince George's Park"
		     },
		     {
			"date": ISODate("2017-10-12T18:24:00Z"),
			"day": "Thursday",
			"start": "COM2 (CP13)",
			"end": "Prince George's Park"
		     },
		     {
			"date": ISODate("2017-10-12T19:06:00Z"),
			"day": "Thursday",
			"start": "COM2 (CP13)",
			"end": "Prince George's Park"
		     },
		     {
			"date": ISODate("2017-10-12T19:06:00Z"),
			"day": "Thursday",
			"start": "COM2 (CP13)",
			"end": "Prince George's Park"
		     },
		     {
			"date": ISODate("2017-10-12T19:06:00Z"),
			"day": "Thursday",
			"start": "COM2 (CP13)",
			"end": "Prince George's Park"
		     },
		     {
			"date": ISODate("2017-10-12T19:06:00Z"),
			"day": "Thursday",
			"start": "COM2 (CP13)",
			"end": "Prince George's Park"
		     },
		     {
			"date": ISODate("2017-10-12T19:06:00Z"),
			"day": "Thursday",
			"start": "COM2 (CP13)",
			"end": "Prince George's Park"
		     },
		     {
			"date": ISODate("2017-10-12T19:06:00Z"),
			"day": "Thursday",
			"start": "COM2 (CP13)",
			"end": "Prince George's Park"
		     },
		     {
			"date": ISODate("2017-10-12T19:06:00Z"),
			"day": "Thursday",
			"start": "COM2 (CP13)",
			"end": "Prince George's Park"
		     },
		     {
			"date": ISODate("2017-10-12T19:06:00Z"),
			"day": "Thursday",
			"start": "COM2 (CP13)",
			"end": "Prince George's Park"
		     },
		     {
			"date": ISODate("2017-10-12T19:06:00Z"),
			"day": "Thursday",
			"start": "COM2 (CP13)",
			"end": "Prince George's Park"
		     },
		     {
			"date": ISODate("2017-10-12T19:06:00Z"),
			"day": "Thursday",
			"start": "COM2 (CP13)",
			"end": "Prince George's Park"
		     },
		     {
			"date": ISODate("2017-10-12T19:06:00Z"),
			"day": "Thursday",
			"start": "COM2 (CP13)",
			"end": "Prince George's Park"
		     },
		     {
			"date": ISODate("2017-10-12T19:06:00Z"),
			"day": "Thursday",
			"start": "COM2 (CP13)",
			"end": "Prince George's Park"
		     },
		     {
			"date": ISODate("2017-10-12T19:06:00Z"),
			"day": "Thursday",
			"start": "COM2 (CP13)",
			"end": "Prince George's Park"
		     },
		     {
			"date": ISODate("2017-10-12T19:27:00Z"),
			"day": "Thursday",
			"start": "Prince George's Park",
			"end": "COM2 (CP13)"
		     },
		     {
			"date": ISODate("2017-10-12T19:27:00Z"),
			"day": "Thursday",
			"start": "Prince George's Park",
			"end": "COM2 (CP13)"
		     },
		     {
			"date": ISODate("2017-10-12T19:27:00Z"),
			"day": "Thursday",
			"start": "Prince George's Park",
			"end": "COM2 (CP13)"
		     },
		     {
			"date": ISODate("2017-10-12T19:27:00Z"),
			"day": "Thursday",
			"start": "Prince George's Park",
			"end": "COM2 (CP13)"
		     },
		     {
			"date": ISODate("2017-10-12T19:27:00Z"),
			"day": "Thursday",
			"start": "Prince George's Park",
			"end": "COM2 (CP13)"
		     },
		     {
			"date": ISODate("2017-10-12T19:27:00Z"),
			"day": "Thursday",
			"start": "Prince George's Park",
			"end": "COM2 (CP13)"
		     },
		     {
			"date": ISODate("2017-10-12T19:27:00Z"),
			"day": "Thursday",
			"start": "Prince George's Park",
			"end": "COM2 (CP13)"
		     },
		     {
			"date": ISODate("2017-10-12T20:33:00Z"),
			"day": "Thursday",
			"start": "COM2 (CP13)",
			"end": "Prince George's Park"
		     },
		     {
			"date": ISODate("2017-10-12T20:33:00Z"),
			"day": "Thursday",
			"start": "COM2 (CP13)",
			"end": "Prince George's Park"
		     },
		     {
			"date": ISODate("2017-10-12T20:33:00Z"),
			"day": "Thursday",
			"start": "COM2 (CP13)",
			"end": "Prince George's Park"
		     },
		     {
			"date": ISODate("2017-10-12T20:33:00Z"),
			"day": "Thursday",
			"start": "COM2 (CP13)",
			"end": "Prince George's Park"
		     },
		     {
			"date": ISODate("2017-10-12T20:33:00Z"),
			"day": "Thursday",
			"start": "COM2 (CP13)",
			"end": "Prince George's Park"
		     },
		     {
			"date": ISODate("2017-10-12T20:33:00Z"),
			"day": "Thursday",
			"start": "COM2 (CP13)",
			"end": "Prince George's Park"
		     },
		     {
			"date": ISODate("2017-10-12T20:33:00Z"),
			"day": "Thursday",
			"start": "COM2 (CP13)",
			"end": "Prince George's Park"
		     },
		     {
			"date": ISODate("2017-10-12T21:15:00Z"),
			"day": "Thursday",
			"start": "COM2 (CP13)",
			"end": "Prince George's Park"
		     },
		     {
			"date": ISODate("2017-10-12T21:15:00Z"),
			"day": "Thursday",
			"start": "COM2 (CP13)",
			"end": "Prince George's Park"
		     },
		     {
			"date": ISODate("2017-10-12T21:15:00Z"),
			"day": "Thursday",
			"start": "COM2 (CP13)",
			"end": "Prince George's Park"
		     },
		     {
			"date": ISODate("2017-10-12T21:15:00Z"),
			"day": "Thursday",
			"start": "COM2 (CP13)",
			"end": "Prince George's Park"
		     },
		     {
			"date": ISODate("2017-10-12T21:15:00Z"),
			"day": "Thursday",
			"start": "COM2 (CP13)",
			"end": "Prince George's Park"
		     },
		     {
			"date": ISODate("2017-10-12T21:15:00Z"),
			"day": "Thursday",
			"start": "COM2 (CP13)",
			"end": "Prince George's Park"
		     },
		     {
			"date": ISODate("2017-10-12T21:15:00Z"),
			"day": "Thursday",
			"start": "COM2 (CP13)",
			"end": "Prince George's Park"
		     },
		     {
			"date": ISODate("2017-10-12T21:15:00Z"),
			"day": "Thursday",
			"start": "COM2 (CP13)",
			"end": "Prince George's Park"
		     },
		     {
			"date": ISODate("2017-10-12T21:57:00Z"),
			"day": "Thursday",
			"start": "COM2 (CP13)",
			"end": "Prince George's Park"
		     },
		     {
			"date": ISODate("2017-10-12T21:57:00Z"),
			"day": "Thursday",
			"start": "COM2 (CP13)",
			"end": "Prince George's Park"
		     },
		     {
			"date": ISODate("2017-10-12T21:57:00Z"),
			"day": "Thursday",
			"start": "COM2 (CP13)",
			"end": "Prince George's Park"
		     },
		     {
			"date": ISODate("2017-10-12T21:57:00Z"),
			"day": "Thursday",
			"start": "COM2 (CP13)",
			"end": "Prince George's Park"
		     },
		     {
			"date": ISODate("2017-10-12T21:57:00Z"),
			"day": "Thursday",
			"start": "COM2 (CP13)",
			"end": "Prince George's Park"
		     },
		     {
			"date": ISODate("2017-10-12T22:12:00Z"),
			"day": "Thursday",
			"start": "Prince George's Park",
			"end": "Central Library"
		     },
		     {
			"date": ISODate("2017-10-12T22:12:00Z"),
			"day": "Thursday",
			"start": "Prince George's Park",
			"end": "University Hall"
		     },
		     {
			"date": ISODate("2017-10-12T22:12:00Z"),
			"day": "Thursday",
			"start": "Prince George's Park",
			"end": "University Hall"
		     },
		     {
			"date": ISODate("2017-10-12T22:12:00Z"),
			"day": "Thursday",
			"start": "Prince George's Park",
			"end": "University Hall"
		     },
		     {
			"date": ISODate("2017-10-12T22:12:00Z"),
			"day": "Thursday",
			"start": "Prince George's Park",
			"end": "University Hall"
		     },
		     {
			"date": ISODate("2017-10-12T22:30:00Z"),
			"day": "Thursday",
			"start": "Central Library",
			"end": "COM2 (CP13)"
		     },
		     {
			"date": ISODate("2017-10-12T22:30:00Z"),
			"day": "Thursday",
			"start": "Central Library",
			"end": "COM2 (CP13)"
		     },
		     {
			"date": ISODate("2017-10-12T22:30:00Z"),
			"day": "Thursday",
			"start": "Central Library",
			"end": "COM2 (CP13)"
		     },
		     {
			"date": ISODate("2017-10-12T22:33:00Z"),
			"day": "Thursday",
			"start": "Central Library",
			"end": "COM2 (CP13)"
		     },
		     {
			"date": ISODate("2017-10-12T22:33:00Z"),
			"day": "Thursday",
			"start": "Central Library",
			"end": "LT 13"
		     },
		     {
			"date": ISODate("2017-10-12T22:33:00Z"),
			"day": "Thursday",
			"start": "Central Library",
			"end": "LT 13"
		     },
		     {
			"date": ISODate("2017-10-12T22:36:00Z"),
			"day": "Thursday",
			"start": "University Hall",
			"end": "COM2 (CP13)"
		     },
		     {
			"date": ISODate("2017-10-12T22:36:00Z"),
			"day": "Thursday",
			"start": "University Hall",
			"end": "COM2 (CP13)"
		     },
		     {
			"date": ISODate("2017-10-12T22:36:00Z"),
			"day": "Thursday",
			"start": "University Hall",
			"end": "COM2 (CP13)"
		     },
		     {
			"date": ISODate("2017-10-12T22:36:00Z"),
			"day": "Thursday",
			"start": "University Hall",
			"end": "COM2 (CP13)"
		     },
		     {
			"date": ISODate("2017-10-12T22:36:00Z"),
			"day": "Thursday",
			"start": "University Hall",
			"end": "COM2 (CP13)"
		     },
		     {
			"date": ISODate("2017-10-12T22:36:00Z"),
			"day": "Thursday",
			"start": "University Hall",
			"end": "COM2 (CP13)"
		     },
		     {
			"date": ISODate("2017-10-12T22:36:00Z"),
			"day": "Thursday",
			"start": "University Hall",
			"end": "COM2 (CP13)"
		     },
		     {
			"date": ISODate("2017-10-12T22:36:00Z"),
			"day": "Thursday",
			"start": "University Hall",
			"end": "COM2 (CP13)"
		     },
		     {
			"date": ISODate("2017-10-12T22:36:00Z"),
			"day": "Thursday",
			"start": "University Hall",
			"end": "COM2 (CP13)"
		     },
		     {
			"date": ISODate("2017-10-12T22:36:00Z"),
			"day": "Thursday",
			"start": "University Hall",
			"end": "COM2 (CP13)"
		     },
		     {
			"date": ISODate("2017-10-12T16:09:00Z"),
			"day": "Thursday",
			"start": "Kent Ridge MRT Station",
			"end": "University Hall"
		     },
		     {
			"date": ISODate("2017-10-12T23:09:00Z"),
			"day": "Thursday",
			"start": "Kent Ridge MRT Station",
			"end": "University Hall"
		     },
		     {
			"date": ISODate("2017-10-12T23:09:00Z"),
			"day": "Thursday",
			"start": "Kent Ridge MRT Station",
			"end": "University Hall"
		     },
		     {
			"date": ISODate("2017-10-12T23:09:00Z"),
			"day": "Thursday",
			"start": "Kent Ridge MRT Station",
			"end": "University Hall"
		     },
		     {
			"date": ISODate("2017-10-12T23:09:00Z"),
			"day": "Thursday",
			"start": "Kent Ridge MRT Station",
			"end": "University Hall"
		     },
		     {
			"date": ISODate("2017-10-12T23:09:00Z"),
			"day": "Thursday",
			"start": "Kent Ridge MRT Station",
			"end": "University Hall"
		     },
		     {
			"date": ISODate("2017-10-12T23:09:00Z"),
			"day": "Thursday",
			"start": "Kent Ridge MRT Station",
			"end": "University Hall"
		     },
		     {
			"date": ISODate("2017-10-12T23:09:00Z"),
			"day": "Thursday",
			"start": "Kent Ridge MRT Station",
			"end": "University Hall"
		     },
		     {
			"date": ISODate("2017-10-12T23:09:00Z"),
			"day": "Thursday",
			"start": "Kent Ridge MRT Station",
			"end": "University Hall"
		     },
		     {
			"date": ISODate("2017-10-12T23:09:00Z"),
			"day": "Thursday",
			"start": "Kent Ridge MRT Station",
			"end": "University Hall"
		     },
		     {
			"date": ISODate("2017-10-12T23:09:00Z"),
			"day": "Thursday",
			"start": "Kent Ridge MRT Station",
			"end": "University Hall"
		     },
		     {
			"date": ISODate("2017-10-12T22:39:00Z"),
			"day": "Thursday",
			"start": "University Hall",
			"end": "Prince George's Park"
		     },
		     {
			"date": ISODate("2017-10-12T22:39:00Z"),
			"day": "Thursday",
			"start": "University Hall",
			"end": "Prince George's Park"
		     },
		     {
			"date": ISODate("2017-10-12T22:39:00Z"),
			"day": "Thursday",
			"start": "University Hall",
			"end": "Prince George's Park"
		     },
		     {
			"date": ISODate("2017-10-12T22:39:00Z"),
			"day": "Thursday",
			"start": "University Hall",
			"end": "Prince George's Park"
		     },
		     {
			"date": ISODate("2017-10-12T22:39:00Z"),
			"day": "Thursday",
			"start": "University Hall",
			"end": "Prince George's Park"
		     },
		     {
			"date": ISODate("2017-10-12T23:21:00Z"),
			"day": "Thursday",
			"start": "University Hall",
			"end": "Prince George's Park"
		     },
		     {
			"date": ISODate("2017-10-12T23:21:00Z"),
			"day": "Thursday",
			"start": "University Hall",
			"end": "Prince George's Park"
		     },
		     {
			"date": ISODate("2017-10-12T23:21:00Z"),
			"day": "Thursday",
			"start": "University Hall",
			"end": "Prince George's Park"
		     },
		     {
			"date": ISODate("2017-10-12T23:21:00Z"),
			"day": "Thursday",
			"start": "University Hall",
			"end": "Prince George's Park"
		     },
		     {
			"date": ISODate("2017-10-12T23:21:00Z"),
			"day": "Thursday",
			"start": "University Hall",
			"end": "Prince George's Park"
		     },
		     {
			"date": ISODate("2017-10-12T23:21:00Z"),
			"day": "Thursday",
			"start": "University Hall",
			"end": "Prince George's Park"
		     },
		     {
			"date": ISODate("2017-10-12T23:21:00Z"),
			"day": "Thursday",
			"start": "University Hall",
			"end": "Prince George's Park"
		     },
		     {
			"date": ISODate("2017-10-12T23:21:00Z"),
			"day": "Thursday",
			"start": "University Hall",
			"end": "Prince George's Park"
		     },
		     {
			"date": ISODate("2017-10-12T23:21:00Z"),
			"day": "Thursday",
			"start": "University Hall",
			"end": "Prince George's Park"
		     },
		     {
			"date": ISODate("2017-10-12T22:36:00Z"),
			"day": "Thursday",
			"start": "University Hall",
			"end": "Prince George's Park"
		     },
		     {
			"date": ISODate("2017-10-12T22:36:00Z"),
			"day": "Thursday",
			"start": "University Hall",
			"end": "Prince George's Park"
		     },
		     {
			"date": ISODate("2017-10-12T22:36:00Z"),
			"day": "Thursday",
			"start": "University Hall",
			"end": "Prince George's Park"
		     },
		     {
			"date": ISODate("2017-10-12T22:36:00Z"),
			"day": "Thursday",
			"start": "University Hall",
			"end": "Prince George's Park"
		     },
		     {
			"date": ISODate("2017-10-12T22:36:00Z"),
			"day": "Thursday",
			"start": "University Hall",
			"end": "Prince George's Park"
		     },
		     {
			"date": ISODate("2017-10-12T22:36:00Z"),
			"day": "Thursday",
			"start": "University Hall",
			"end": "Prince George's Park"
		     },
		     {
			"date": ISODate("2017-10-12T22:36:00Z"),
			"day": "Thursday",
			"start": "University Hall",
			"end": "Prince George's Park"
		     },
		     {
			"date": ISODate("2017-10-12T22:36:00Z"),
			"day": "Thursday",
			"start": "University Hall",
			"end": "Prince George's Park"
		     },
		     {
			"date": ISODate("2017-10-12T22:36:00Z"),
			"day": "Thursday",
			"start": "University Hall",
			"end": "Prince George's Park"
		     },
		     {
			"date": ISODate("2017-10-12T23:18:00Z"),
			"day": "Thursday",
			"start": "University Hall",
			"end": "Prince George's Park"
		     },
		     {
			"date": ISODate("2017-10-12T23:18:00Z"),
			"day": "Thursday",
			"start": "University Hall",
			"end": "Prince George's Park"
		     },
		     {
			"date": ISODate("2017-10-12T23:18:00Z"),
			"day": "Thursday",
			"start": "University Hall",
			"end": "Prince George's Park"
		     },
		     {
			"date": ISODate("2017-10-12T23:18:00Z"),
			"day": "Thursday",
			"start": "University Hall",
			"end": "Prince George's Park"
		     },
		     {
			"date": ISODate("2017-10-12T23:18:00Z"),
			"day": "Thursday",
			"start": "University Hall",
			"end": "Prince George's Park"
		     },
		     {
			"date": ISODate("2017-10-12T23:18:00Z"),
			"day": "Thursday",
			"start": "University Hall",
			"end": "Prince George's Park"
		     },
		     {
			"date": ISODate("2017-10-12T23:18:00Z"),
			"day": "Thursday",
			"start": "University Hall",
			"end": "Prince George's Park"
		     },
		     {
			"date": ISODate("2017-10-12T23:18:00Z"),
			"day": "Thursday",
			"start": "University Hall",
			"end": "Prince George's Park"
		     },
		     {
			"date": ISODate("2017-10-12T23:18:00Z"),
			"day": "Thursday",
			"start": "University Hall",
			"end": "Prince George's Park"
		     },
		     {
			"date": ISODate("2017-10-12T23:18:00Z"),
			"day": "Thursday",
			"start": "University Hall",
			"end": "Prince George's Park"
		     },
		     {
			"date": ISODate("2017-10-12T23:18:00Z"),
			"day": "Thursday",
			"start": "University Hall",
			"end": "Prince George's Park"
		     },
		     {
			"date": ISODate("2017-10-12T23:18:00Z"),
			"day": "Thursday",
			"start": "University Hall",
			"end": "Prince George's Park"
		     }
		    ]
},
{
	"BusNumber": "A2",
	"BusRoute": [
		   {"_id": "A2_1",
				"BusStop": "Prince George's Park",
		    "ArrivalTimes": ["0730", "0815", "0900", "0945", "1030", "1115", "1200", "1245", "1330", "1415", "1500", "1545", "1630", "1715", "1800", "1845", "1930", "2015", "2100", "2145", "2230"]
		   },
		   {"_id": "A2_2",
				"BusStop": "PGP Hse No 14 and No 15",
	  	  "ArrivalTimes": ["0733", "0818", "0903", "0948", "1033", "1118", "1203", "1248", "1333", "1418", "1503", "1548", "1633", "1718", "1803", "1848", "1933", "2018", "2103", "2148", "2233"]
		   },
		   {"_id": "A2_3",
				"BusStop": "PGP Hse No 12",
		    "ArrivalTimes": ["0736", "0821", "0906", "0951", "1036", "1121", "1206", "1251", "1336", "1421", "1506", "1551", "1636", "1721", "1806", "1851", "1936", "2021", "2106", "2151", "2236"]
		   },
		   {"_id": "A2_4",
				"BusStop": "Opp HSSML",
		    "ArrivalTimes": ["0739", "0824", "0909", "0954", "1039", "1124", "1209", "1254", "1339", "1424", "1509", "1554", "1639", "1724", "1809", "1854", "1939", "2024", "2109", "2154", "2239"]
		   },
		   {"_id": "A2_5",
				"BusStop": "Opp NUSS",
		    "ArrivalTimes": ["0742", "0827", "0912", "0957", "1042", "1127", "1212", "1257", "1342", "1427", "1512", "1557", "1642", "1727", "1812", "1857", "1942", "2027", "2112", "2157", "2242"]
		   },
		   {"_id": "A2_6",
				"BusStop": "COM2 (CP13)",
		    "ArrivalTimes": ["0745", "0830", "0915", "1000", "1045", "1130", "1215", "1300", "1345", "1430", "1515", "1600", "1645", "1730", "1815", "1900", "1945", "2030", "2115", "2200", "2245"]
		   },
		   {"_id": "A2_7",
				"BusStop": "Ventus (Opp LT13)",
		    "ArrivalTimes": ["0748", "0833", "0918", "1003", "1048", "1133", "1218", "1303", "1348", "1433", "1518", "1603", "1648", "1733", "1818", "1903", "1948", "2033", "2118", "2203", "2248"]
		   },
		   {"_id": "A2_8",
				"BusStop": "Computer Centre",
		    "ArrivalTimes": ["0751", "0836", "0921", "1006", "1051", "1136", "1221", "1306", "1351", "1436", "1521", "1606", "1651", "1736", "1821", "1906", "1951", "2036", "2121", "2206", "2251"]
		   },
		   {"_id": "A2_9",
				"BusStop": "Opp Yusof Ishak House",
		    "ArrivalTimes": ["0754", "0839", "0924", "1009", "1054", "1139", "1224", "1309", "1354", "1439", "1524", "1609", "1654", "1739", "1824", "1909", "1954", "2039", "2124", "2209", "2254"]
		   },
		   {"_id": "A2_10",
				"BusStop": "Museum",
		    "ArrivalTimes": ["0757", "0842", "0927", "1012", "1057", "1142", "1227", "1312", "1357", "1442", "1527", "1612", "1657", "1742", "1827", "1912", "1957", "2042", "2127", "2212", "2257"]
		   },
		   {"_id": "A2_11",
				"BusStop": "University Health Centre",
		    "ArrivalTimes": ["0800", "0845", "0930", "1015", "1100", "1145", "1230", "1315", "1400", "1445", "1530", "1615", "1700", "1745", "1830", "1915", "2000", "2045", "2130", "2215", "2300"]
		   },
		   {"_id": "A2_12",
				"BusStop": "Opp University Hall",
		    "ArrivalTimes": ["0803", "0848", "0933", "1018", "1103", "1148", "1233", "1318", "1403", "1448", "1533", "1618", "1703", "1748", "1833", "1918", "2003", "2048", "2133", "2218", "2303"]
		   },
		   {"_id": "A2_13",
				"BusStop": "S17",
		    "ArrivalTimes": ["0806", "0851", "0936", "1021", "1106", "1151", "1236", "1321", "1406", "1451", "1536", "1621", "1706", "1751", "1836", "1921", "2006", "2051", "2136", "2221", "2306"]
		   },
		   {"_id": "A2_14",
				"BusStop": "Opp Kent Ridge MRT Station",
		    "ArrivalTimes": ["0809", "0854", "0939", "1024", "1109", "1154", "1239", "1324", "1409", "1454", "1539", "1624", "1709", "1754", "1839", "1924", "2009", "2054", "2139", "2224", "2309"]
		   },
		   {"_id": "A2_15",
				"BusStop": "Prince George's Park",
		    "ArrivalTimes": ["0812", "0857", "0942", "1027", "1112", "1157", "1242", "1327", "1412", "1457", "1542", "1627", "1712", "1757", "1842", "1927", "2012", "2057", "2142", "2227", "2312"]
		   }
		  ],
	"Capacity": 60,
	"NumUsers": 12,
	"UserDetail": [
		     {
			"date": 123,
			"time": 1200,
			"day": "Tuesday",
			"start": "Prince George's Park",
			"end": "COM2 (CP13)"
		     },
		     {
			"date": 123,
			"time": 1200,
			"day": "Tuesday",
			"start": "Prince George's Park",
			"end": "COM2 (CP13)"
		     }
			 ]
},
{
	"BusNumber": "B1",
	"BusRoute": [
		   {"_id": "B1_1",
				"BusStop": "Kent Ridge Bus Terminal",
		    "ArrivalTimes": ["0730", "0805", "0840", "0915", "0950", "1025", "1100", "1135", "1210", "1245", "1320", "1355", "1430", "1505", "1540", "1615", "1650", "1725", "1800", "1835", "1910", "1945", "2020", "2055", "2130", "2205", "2240"]
		   },
		   {"_id": "B1_2",
				"BusStop": "Computer Centre",
	  	  "ArrivalTimes": ["0734", "0809", "0844", "0919", "0954", "1029", "1104", "1139", "1214", "1249", "1324", "1359", "1434", "1509", "1544", "1619", "1654", "1729", "1804", "1839", "1914", "1949", "2024", "2059", "2134", "2209", "2244"]
		   },
		   {"_id": "B1_3",
				"BusStop": "Opp Yusof Ishak House",
		    "ArrivalTimes": ["0738", "0813", "0848", "0923", "0958", "1033", "1108", "1143", "1218", "1253", "1328", "1403", "1438", "1513", "1548", "1623", "1658", "1733", "1808", "1843", "1918", "1953", "2028", "2103", "2138", "2213", "2248"]
		   },
		   {"_id": "B1_4",
				"BusStop": "University Town",
		    "ArrivalTimes": ["0742", "0817", "0852", "0927", "1002", "1037", "1112", "1147", "1222", "1257", "1332", "1407", "1442", "1517", "1552", "1627", "1702", "1737", "1812", "1847", "1922", "1957", "2032", "2107", "2142", "2217", "2252"]
		   },
		   {"_id": "B1_5",
				"BusStop": "Yusof Ishak House",
		    "ArrivalTimes": ["0746", "0821", "0856", "0931", "1006", "1041", "1116", "1151", "1226", "1301", "1336", "1411", "1446", "1521", "1556", "1631", "1706", "1741", "1816", "1851", "1926", "2001", "2036", "2111", "2146", "2221", "2256"]
		   },
		   {"_id": "B1_6",
				"BusStop": "Central Library",
		    "ArrivalTimes": ["0750", "0825", "0900", "0935", "1010", "1045", "1120", "1155", "1230", "1305", "1340", "1415", "1450", "1525", "1600", "1635", "1710", "1745", "1820", "1855", "1930", "2005", "2040", "2115", "2150", "2225", "2300"]
		   },
		   {"_id": "B1_7",
				"BusStop": "LT 13",
		    "ArrivalTimes": ["0754", "0829", "0904", "0939", "1014", "1049", "1124", "1159", "1234", "1309", "1344", "1419", "1454", "1529", "1604", "1639", "1714", "1749", "1824", "1859", "1934", "2009", "2044", "2119", "2154", "2229", "2304"]
		   },
		   {"_id": "B1_8",
				"BusStop": "AS7",
		    "ArrivalTimes": ["0758", "0833", "0908", "0943", "1018", "1053", "1128", "1203", "1238", "1313", "1348", "1423", "1458", "1533", "1608", "1643", "1718", "1753", "1828", "1903", "1938", "2013", "2048", "2123", "2158", "2233", "2308"]
		   },
		   {"_id": "B1_9",
				"BusStop": "BIZ 2",
		    "ArrivalTimes": ["0802", "0837", "0912", "0947", "1022", "1057", "1132", "1207", "1242", "1317", "1352", "1427", "1502", "1537", "1612", "1647", "1722", "1757", "1832", "1907", "1942", "2017", "2052", "2127", "2202", "2237", "2312"]
		   }
		  ],
	"Capacity": 60,
	"NumUsers": 12,
	"UserDetail": [
		     {
			"date": 123,
			"time": 1200,
			"day": "Tuesday",
			"start": "Prince George's Park",
			"end": "COM2 (CP13)"
		     }
		    ]
},
{
	"BusNumber": "B2",
	"BusRoute": [
		   {"_id": "B2_1",
				"BusStop": "Opp HSSML",
		    "ArrivalTimes": ["0730", "0805", "0840", "0915", "0950", "1025", "1100", "1135", "1210", "1245", "1320", "1355", "1430", "1505", "1540", "1615", "1650", "1725", "1800", "1835", "1910", "1945", "2020", "2055", "2130", "2205", "2240"]
		   },
		   {"_id": "B2_2",
				"BusStop": "Opp NUSS",
	  	  "ArrivalTimes": ["0734", "0809", "0844", "0919", "0954", "1029", "1104", "1139", "1214", "1249", "1324", "1359", "1434", "1509", "1544", "1619", "1654", "1729", "1804", "1839", "1914", "1949", "2024", "2059", "2134", "2209", "2244"]
		   },
		   {"_id": "B2_3",
				"BusStop": "Ventus (Opp LT13)",
		    "ArrivalTimes": ["0738", "0813", "0848", "0923", "0958", "1033", "1108", "1143", "1218", "1253", "1328", "1403", "1438", "1513", "1548", "1623", "1658", "1733", "1808", "1843", "1918", "1953", "2028", "2103", "2138", "2213", "2248"]
		   },
		   {"_id": "B2_4",
				"BusStop": "Computer Centre",
		    "ArrivalTimes": ["0742", "0817", "0852", "0927", "1002", "1037", "1112", "1147", "1222", "1257", "1332", "1407", "1442", "1517", "1552", "1627", "1702", "1737", "1812", "1847", "1922", "1957", "2032", "2107", "2142", "2217", "2252"]
		   },
		   {"_id": "B2_5",
				"BusStop": "Opp Yusof Ishak House",
		    "ArrivalTimes": ["0746", "0821", "0856", "0931", "1006", "1041", "1116", "1151", "1226", "1301", "1336", "1411", "1446", "1521", "1556", "1631", "1706", "1741", "1816", "1851", "1926", "2001", "2036", "2111", "2146", "2221", "2256"]
		   },
		   {"_id": "B2_6",
				"BusStop": "University Town",
		    "ArrivalTimes": ["0750", "0825", "0900", "0935", "1010", "1045", "1120", "1155", "1230", "1305", "1340", "1415", "1450", "1525", "1600", "1635", "1710", "1745", "1820", "1855", "1930", "2005", "2040", "2115", "2150", "2225", "2300"]
		   },
		   {"_id": "B2_7",
				"BusStop": "Raffles Hall",
		    "ArrivalTimes": ["0754", "0829", "0904", "0939", "1014", "1049", "1124", "1159", "1234", "1309", "1344", "1419", "1454", "1529", "1604", "1639", "1714", "1749", "1824", "1859", "1934", "2009", "2044", "2119", "2154", "2229", "2304"]
		   },
		   {"_id": "B2_8",
				"BusStop": "EA",
		    "ArrivalTimes": ["0758", "0833", "0908", "0943", "1018", "1053", "1128", "1203", "1238", "1313", "1348", "1423", "1458", "1533", "1608", "1643", "1718", "1753", "1828", "1903", "1938", "2013", "2048", "2123", "2158", "2233", "2308"]
		   },
		   {"_id": "B2_9",
				"BusStop": "Kent Ridge Bus Terminal",
		    "ArrivalTimes": ["0802", "0837", "0912", "0947", "1022", "1057", "1132", "1207", "1242", "1317", "1352", "1427", "1502", "1537", "1612", "1647", "1722", "1757", "1832", "1907", "1942", "2017", "2052", "2127", "2202", "2237", "2312"]
		   }
		  ],
	"Capacity": 60,
	"NumUsers": 12,
	"UserDetail": [
		     {
			"date": 123,
			"time": 1200,
			"day": "Tuesday",
			"start": "Prince George's Park",
			"end": "COM2 (CP13)"
		     }
		    ]
},
{
	"BusNumber": "C_Before_1000hrs",
	"BusRoute": [
		   {"_id": "C1_1",
				"BusStop": "Kent Ridge Bus Terminal",
		    "ArrivalTimes": ["0730", "0805", "0840", "0915", "0950"]
		   },
		   {"_id": "C1_2",
				"BusStop": "Kent Vale (0715hrs to 1000hrs)",
	  	  "ArrivalTimes": ["0734", "0809", "0844", "0919", "0954"]
		   },
		   {"_id": "C1_3",
				"BusStop": "Museum",
		    "ArrivalTimes": ["0738", "0813", "0848", "0923", "0958"]
		   },
		   {"_id": "C1_4",
				"BusStop": "University Health Centre",
		    "ArrivalTimes": ["0742", "0817", "0852", "0927", "1002"]
		   },
		   {"_id": "C1_5",
				"BusStop": "Opp University Hall",
		    "ArrivalTimes": ["0746", "0821", "0856", "0931", "1006"]
		   },
		   {"_id": "C1_6",
				"BusStop": "S17",
		    "ArrivalTimes": ["0750", "0825", "0900", "0935", "1010"]
		   },
		   {"_id": "C1_7",
				"BusStop": "LT 29",
		    "ArrivalTimes": ["0754", "0829", "0904", "0939", "1014"]
		   },
		   {"_id": "C1_8",
				"BusStop": "University Hall",
		    "ArrivalTimes": ["0758", "0833", "0908", "0943", "1018"]
		   },
		   {"_id": "C1_9",
				"BusStop": "Opp University Health Centre",
		    "ArrivalTimes": ["0802", "0837", "0912", "0947", "1022"]
		   },
		   {"_id": "C1_10",
				"BusStop": "Raffles Hall",
		    "ArrivalTimes": ["0806", "0841", "0916", "0951", "1026"]
		   },
		   {"_id": "C1_11",
				"BusStop": "EA",
		    "ArrivalTimes": ["0810", "0845", "0920", "0955", "1030"]
		   },
		   {"_id": "C1_12",
				"BusStop": "Kent Ridge Bus Terminal",
		    "ArrivalTimes": ["0814", "0849", "0924", "0959", "1034"]
		   }
		  ],
	"Capacity": 60,
	"NumUsers": 12,
	"UserDetail": [
		     {
			"date": 123,
			"time": 1200,
			"day": "Tuesday",
			"start": "Prince George's Park",
			"end": "COM2 (CP13)"
		     }
		    ]
},
{
	"BusNumber": "C_After_1000hrs",
	"BusRoute": [
		   {"_id": "C2_1",
				"BusStop": "Kent Ridge Bus Terminal",
		    "ArrivalTimes": ["1038", "1126", "1214", "1302", "1350", "1438", "1526", "1614", "1702", "1750", "1838", "1926", "2014", "2102", "2150", "2238"]
		   },
		   {"_id": "C2_2",
				"BusStop": "Computer Centre",
	  	  "ArrivalTimes": ["1042", "1130", "1218", "1306", "1354", "1442", "1530", "1618", "1706", "1754", "1842", "1930", "2018", "2106", "2154", "2242"]
		   },
		   {"_id": "C2_3",
				"BusStop": "Opp Yusof Ishak House",
		    "ArrivalTimes": ["1046", "1134", "1222", "1310", "1358", "1446", "1534", "1622", "1710", "1758", "1846", "1934", "2022", "2110", "2158", "2246"]
		   },
		   {"_id": "C2_4",
				"BusStop": "Museum",
		    "ArrivalTimes": ["1050", "1138", "1226", "1314", "1402", "1450", "1538", "1626", "1714", "1802", "1850", "1938", "2026", "2114", "2202", "2250"]
		   },
		   {"_id": "C2_5",
				"BusStop": "University Health Centre",
		    "ArrivalTimes": ["1054", "1142", "1230", "1318", "1406", "1454", "1542", "1630", "1718", "1806", "1854", "1942", "2030", "2118", "2206", "2254"]
		   },
		   {"_id": "C2_6",
				"BusStop": "Opp University Hall",
		    "ArrivalTimes": ["1058", "1146", "1234", "1322", "1410", "1458", "1546", "1634", "1722", "1810", "1858", "1946", "2034", "2122", "2210", "2258"]
		   },
		   {"_id": "C2_7",
				"BusStop": "S17",
		    "ArrivalTimes": ["1102", "1150", "1238", "1326", "1414", "1502", "1550", "1638", "1726", "1814", "1902", "1950", "2038", "2126", "2214", "2302"]
		   },
		   {"_id": "C2_8",
				"BusStop": "LT 29",
		    "ArrivalTimes": ["1106", "1154", "1242", "1330", "1418", "1506", "1554", "1642", "1730", "1818", "1906", "1954", "2042", "2130", "2218", "2306"]
		   },
		   {"_id": "C2_9",
				"BusStop": "Opp University Health Centre",
		    "ArrivalTimes": ["1110", "1158", "1246", "1334", "1422", "1510", "1558", "1646", "1734", "1822", "1910", "1958", "2046", "2134", "2222", "2310"]
		   },
		   {"_id": "C2_10",
				"BusStop": "Raffles Hall",
		    "ArrivalTimes": ["1114", "1202", "1250", "1338", "1426", "1514", "1602", "1650", "1738", "1826", "1914", "2002", "2050", "2138", "2226", "2314"]
		   },
		   {"_id": "C2_11",
				"BusStop": "EA",
		    "ArrivalTimes": ["1118", "1206", "1254", "1342", "1430", "1518", "1606", "1654", "1742", "1830", "1918", "2006", "2054", "2142", "2230", "2318"]
		   },
		   {"_id": "C2_12",
				"BusStop": "Kent Ridge Bus Terminal",
		    "ArrivalTimes": ["1122", "1210", "1258", "1346", "1434", "1522", "1610", "1658", "1746", "1834", "1922", "2010", "2058", "2146", "2234", "2322"]
		   }
		  ],
	"Capacity": 60,
	"NumUsers": 12,
	"UserDetail": [
		     {
			"date": 123,
			"time": 1200,
			"day": "Tuesday",
			"start": "Prince George's Park",
			"end": "COM2 (CP13)"
		     }
		    ]
},
{
	"BusNumber": "D1",
	"BusRoute": [
		   {"_id": "D1_1",
				"BusStop": "Opp HSSML",
		    "ArrivalTimes": ["0730", "0812", "0854", "0936", "1018", "1100", "1142", "1224", "1306", "1348", "1430", "1512", "1554", "1636", "1718", "1800", "1842", "1924", "2006", "2048", "2130", "2212"]
		   },
		   {"_id": "D1_2",
				"BusStop": "Opp NUSS",
	  	  "ArrivalTimes": ["0733", "0815", "0857", "0939", "1021", "1103", "1145", "1227", "1309", "1351", "1433", "1515", "1557", "1639", "1721", "1803", "1845", "1927", "2009", "2051", "2133", "2215"]
		   },
		   {"_id": "D1_3",
				"BusStop": "COM2 (CP13)",
		    "ArrivalTimes": ["0736", "0818", "0900", "0942", "1024", "1106", "1148", "1230", "1312", "1354", "1436", "1518", "1600", "1642", "1724", "1806", "1848", "1930", "2012", "2054", "2136", "2218"]
		   },
		   {"_id": "D1_4",
				"BusStop": "Ventus (Opp LT13)",
		    "ArrivalTimes": ["0739", "0821", "0903", "0945", "1027", "1109", "1151", "1233", "1315", "1357", "1439", "1521", "1603", "1645", "1727", "1809", "1851", "1933", "2015", "2057", "2139", "2221"]
		   },
		   {"_id": "D1_5",
				"BusStop": "Computer Centre",
		    "ArrivalTimes": ["0742", "0824", "0906", "0948", "1030", "1112", "1154", "1236", "1318", "1400", "1442", "1524", "1606", "1648", "1730", "1812", "1854", "1936", "2018", "2100", "2142", "2224"]
		   },
		   {"_id": "D1_6",
				"BusStop": "Opp Yusof Ishak House",
		    "ArrivalTimes": ["0745", "0827", "0909", "0951", "1033", "1115", "1157", "1239", "1321", "1403", "1445", "1527", "1609", "1651", "1733", "1815", "1857", "1939", "2021", "2103", "2145", "2227"]
		   },
		   {"_id": "D1_7",
				"BusStop": "Museum",
		    "ArrivalTimes": ["0748", "0830", "0912", "0954", "1036", "1118", "1200", "1242", "1324", "1406", "1448", "1530", "1612", "1654", "1736", "1818", "1900", "1942", "2024", "2106", "2148", "2230"]
		   },
		   {"_id": "D1_8",
				"BusStop": "University Town",
		    "ArrivalTimes": ["0751", "0833", "0915", "0957", "1039", "1121", "1203", "1245", "1327", "1409", "1451", "1533", "1615", "1657", "1739", "1821", "1903", "1945", "2027", "2109", "2151", "2233"]
		   },
		   {"_id": "D1_9",
				"BusStop": "Yusof Ishak House",
		    "ArrivalTimes": ["0754", "0836", "0918", "1000", "1042", "1124", "1206", "1248", "1330", "1412", "1454", "1536", "1618", "1700", "1742", "1824", "1906", "1948", "2030", "2112", "2154", "2236"]
		   },
		   {"_id": "D1_10",
				"BusStop": "Central Library",
		    "ArrivalTimes": ["0757", "0839", "0921", "1003", "1045", "1127", "1209", "1251", "1333", "1415", "1457", "1539", "1621", "1703", "1745", "1827", "1909", "1951", "2033", "2115", "2157", "2239"]
		   },
		   {"_id": "D1_11",
				"BusStop": "LT 13",
		    "ArrivalTimes": ["0800", "0842", "0924", "1006", "1048", "1130", "1212", "1254", "1336", "1418", "1500", "1542", "1624", "1706", "1748", "1830", "1912", "1954", "2036", "2118", "2200", "2242"]
		   },
		   {"_id": "D1_12",
				"BusStop": "AS7",
		    "ArrivalTimes": ["0803", "0845", "0927", "1009", "1051", "1133", "1215", "1257", "1339", "1421", "1503", "1545", "1627", "1709", "1751", "1833", "1915", "1957", "2039", "2121", "2203", "2245"]
		   },
		   {"_id": "D1_13",
				"BusStop": "COM 2",
		    "ArrivalTimes": ["0806", "0848", "0930", "1012", "1054", "1136", "1218", "1300", "1342", "1424", "1506", "1548", "1630", "1712", "1754", "1836", "1918", "2000", "2042", "2124", "2206", "2248"]
		   },
		   {"_id": "D1_14",
				"BusStop": "BIZ 2",
		    "ArrivalTimes": ["0809", "0851", "0933", "1015", "1057", "1139", "1221", "1303", "1345", "1427", "1509", "1551", "1633", "1715", "1757", "1839", "1921", "2003", "2045", "2127", "2209", "2251"]
		   }
		  ],
	"Capacity": 60,
	"NumUsers": 12,
	"UserDetail": [
		     {
			"date": 123,
			"time": 1200,
			"day": "Tuesday",
			"start": "Prince George's Park",
			"end": "COM2 (CP13)"
		     }
		    ]
},
{
	"BusNumber": "D2",
	"BusRoute": [
		   {"_id": "D2_1",
				"BusStop": "Prince George's Park",
		    "ArrivalTimes": ["0730", "0809", "0848", "0927", "1006", "1045", "1124", "1203", "1242", "1321", "1400", "1439", "1518", "1557", "1636", "1715", "1754", "1833", "1912", "1951", "2030", "2109", "2148", "2227"]
		   },
		   {"_id": "D2_2",
				"BusStop": "Kent Ridge MRT Station",
	  	  "ArrivalTimes": ["0733", "0812", "0851", "0930", "1009", "1048", "1127", "1206", "1245", "1324", "1403", "1442", "1521", "1600", "1639", "1718", "1757", "1836", "1915", "1954", "2033", "2112", "2151", "2230"]
		   },
		   {"_id": "D2_3",
				"BusStop": "LT 29",
		    "ArrivalTimes": ["0736", "0815", "0854", "0933", "1012", "1051", "1130", "1209", "1248", "1327", "1406", "1445", "1524", "1603", "1642", "1721", "1800", "1839", "1918", "1957", "2036", "2115", "2154", "2233"]
		   },
		   {"_id": "D2_4",
				"BusStop": "University Hall",
		    "ArrivalTimes": ["0739", "0818", "0857", "0936", "1015", "1054", "1133", "1212", "1251", "1330", "1409", "1448", "1527", "1606", "1645", "1724", "1803", "1842", "1921", "2000", "2039", "2118", "2157", "2236"]
		   },
		   {"_id": "D2_5",
				"BusStop": "Opp University Health Centre",
		    "ArrivalTimes": ["0742", "0821", "0900", "0939", "1018", "1057", "1136", "1215", "1254", "1333", "1412", "1451", "1530", "1609", "1648", "1727", "1806", "1845", "1924", "2003", "2042", "2121", "2200", "2239"]
		   },
		   {"_id": "D2_6",
				"BusStop": "Museum",
		    "ArrivalTimes": ["0745", "0824", "0903", "0942", "1021", "1100", "1139", "1218", "1257", "1336", "1415", "1454", "1533", "1612", "1651", "1730", "1809", "1848", "1927", "2006", "2045", "2124", "2203", "2242"]
		   },
		   {"_id": "D2_7",
				"BusStop": "University Town",
		    "ArrivalTimes": ["0748", "0827", "0906", "0945", "1024", "1103", "1142", "1221", "1300", "1339", "1418", "1457", "1536", "1615", "1654", "1733", "1812", "1851", "1930", "2009", "2048", "2127", "2206", "2245"]
		   },
		   {"_id": "D2_8",
				"BusStop": "University Health Centre",
		    "ArrivalTimes": ["0751", "0830", "0909", "0948", "1027", "1106", "1145", "1224", "1303", "1342", "1421", "1500", "1539", "1618", "1657", "1736", "1815", "1854", "1933", "2012", "2051", "2130", "2209", "2248"]
		   },
		   {"_id": "D2_9",
				"BusStop": "Opp University Hall",
		    "ArrivalTimes": ["0754", "0833", "0912", "0951", "1030", "1109", "1148", "1227", "1306", "1345", "1424", "1503", "1542", "1621", "1700", "1739", "1818", "1857", "1936", "2015", "2054", "2133", "2212", "2251"]
		   },
		   {"_id": "D2_10",
				"BusStop": "S17",
		    "ArrivalTimes": ["0757", "0836", "0915", "0954", "1033", "1112", "1151", "1230", "1309", "1348", "1427", "1506", "1545", "1624", "1703", "1742", "1821", "1900", "1939", "2018", "2057", "2136", "2215", "2254"]
		   },
		   {"_id": "D2_11",
				"BusStop": "Opp Kent Ridge MRT Station",
		    "ArrivalTimes": ["0800", "0839", "0918", "0957", "1036", "1115", "1154", "1233", "1312", "1351", "1430", "1509", "1548", "1627", "1706", "1745", "1824", "1903", "1942", "2021", "2100", "2139", "2218", "2257"]
		   },
		   {"_id": "D2_12",
				"BusStop": "Prince George's Park Residences",
		    "ArrivalTimes": ["0803", "0842", "0921", "1000", "1039", "1118", "1157", "1236", "1315", "1354", "1433", "1512", "1551", "1630", "1709", "1748", "1827", "1906", "1945", "2024", "2103", "2142", "2221", "2300"]
		   },
		   {"_id": "D2_13",
				"BusStop": "Car Park 11 (BIZ)",
		    "ArrivalTimes": ["0806", "0845", "0924", "1003", "1042", "1121", "1200", "1239", "1318", "1357", "1436", "1515", "1554", "1633", "1712", "1751", "1830", "1909", "1948", "2027", "2106", "2145", "2224", "2303"]
		   }
		  ],
	"Capacity": 60,
	"NumUsers": 12,
	"UserDetail": [
		     {
			"date": 123,
			"time": 1200,
			"day": "Tuesday",
			"start": "Prince George's Park",
			"end": "COM2 (CP13)"
		     }
		    ]
},
{
	"BusNumber": "UT-FOS",
	"BusRoute": [
		   {"_id": "UT-FOS_1",
				"BusStop": "University Town",
		    "ArrivalTimes": ["0900", "0910"]
		   },
		   {"_id": "UT-FOS_2",
				"BusStop": "LT 29",
	  	  "ArrivalTimes": ["123", "123"]
		   },
		   {"_id": "UT-FOS_3",
				"BusStop": "University Town",
		    "ArrivalTimes": ["123", "123"]
		   }
		  ],
	"Capacity": 60,
	"NumUsers": 12,
	"UserDetail": [
		     {
			"date": 123,
			"time": 1200,
			"day": "Tuesday",
			"start": "Prince George's Park",
			"end": "COM2 (CP13)"
		     }
		    ]
}]
